0216011,37
0216322,165
0311274,77
0312012,50,212,227
0312546,40,80
0316032,77,120
0316036,14,209,240
0316045,77,188
0316046,14
0316052,154
0316070,77
0316077,64,77
0316084,64,80,163
0316089,165,212
0316105,80,114,165,188
0316203,80,180
0316205,212
0316309,134
0316319,134,283
0316322,134
0317023,227
0410750,246
0411081,209
0411228,227
0411254,227
0411306,14,64
0412236,154,163
0412237,40
0412241,163,279
0412248,188
0412253,40
0413107,165,212
0413234,209
0413249,154
0413324,165,283
0413328,80,165,188
0413335,210,246
0413354,154,165
0413358,14,68,209
0413359,154,165
0416001,154,212
0416002,154,212
0416004,64,163,212
0416005,154,209
0416006,165
0416007,14,212
0416008,64,212
0416009,163
0416010,163,168
0416014,64,227
0416015,1,154,209,212
0416016,64
0416018,165,188,209
0416020,64
0416021,246
0416022,163
0416024,165,227
0416025,163,212
0416026,64,163,212
0416028,68,163
0416029,14,212
0416030,80,165
0416032,64,163
0416033,64,212
0416035,64,286
0416036,163
0416037,209
0416038,77,209,212
0416039,68,210,227
0416040,109,209,279
0416041,165,209
0416042,209,246
0416043,64,77
0416044,209
0416045,14,64
0416046,14
0416047,40
0416048,64
0416049,40,188
0416050,163,212
0416052,14,212
0416053,212,227
0416054,64,93,212
0416055,163,209
0416057,209,212
0416058,40,111
0416059,86
0416061,165,212
0416062,212
0416063,1,212
0416064,212,227
0416065,40,163,212
0416068,212
0416069,37,165,209
0416070,64,134
0416071,165
0416073,77,93,212
0416074,163
0416076,212,227
0416077,154,212
0416081,64,212
0416082,165,210,212
0416083,40,163,188
0416084,14,212
0416086,40,64
0416087,212,263
0416088,64,279
0416090,163,212
0416091,163
0416092,163
0416093,209,212
0416094,64,212
0416095,64,93,212
0416096,209,210,212,246
0416097,64,212
0416098,40,163
0416102,86,188
0416104,165,188
0416106,40,114,163,227,291
0416107,209,212
0416108,37
0416109,40,163
0416111,14,209,212
0416202,14,40,263
0416204,165
0416205,40,77
0416206,120,212
0416207,212
0416208,163
0416209,77
0416210,127,134
0416211,120,165
0416212,212
0416213,212,227
0416214,120,291
0416216,212
0416217,77,210
0416218,14,40
0416219,180,212
0416220,13,64,279
0416223,77,209,210
0416224,14,80,263
0416225,154,212
0416226,80,86,180,209
0416228,109,209,279
0416230,165
0416233,163
0416234,77,212
0416235,25,127,163,184
0416236,14,263
0416237,109,209
0416238,14,212,263
0416239,246
0416240,77,86
0416241,209
0416242,209,212
0416243,212
0416244,14,212
0416245,40,77
0416246,279,291
0416247,209
0416248,180,212
0416249,14,209
0416250,1,134
0416251,14,209
0416252,14,80
0416256,64,163,212
0416301,64
0416302,163,168
0416303,283
0416305,1
0416306,163,168
0416307,212,291
0416308,64,77
0416311,209,246,279
0416313,77,212
0416314,14,114
0416320,68,212
0416321,209
0416323,120,154
0416324,64,227
0416325,209
0416326,86,165
0416327,86,163,168,209
0416330,163
0416332,14,64
0417034,37,163
0510507,163
0510532,64,77
0511030,163
0511052,13,40,120,165
0511080,77,188
0511097,64,163
0511606,163,216
0512204,163,212
0512217,127,163
0513311,163
0513328,163
0513406,163
0513407,154
0515341,165
0516002,64
0516003,163
0516004,64
0516006,14
0516007,279
0516008,40,77
0516009,240
0516010,165
0516011,227
0516012,64
0516013,40,163,209
0516014,14,64
0516015,80,188
0516016,64,168
0516017,163
0516018,154,163
0516019,163,279
0516020,163
0516021,163,279
0516022,77
0516023,40,163
0516024,209
0516025,163
0516026,154
0516027,14
0516029,165
0516030,163
0516031,163,279
0516032,163
0516033,165
0516035,86,163
0516036,163,263
0516037,163
0516038,227,279
0516039,14
0516040,168
0516041,163
0516042,163
0516043,168
0516044,77
0516045,209
0516046,165,209
0516047,64,154,163
0516048,163
0516049,163
0516051,64,163
0516052,64
0516053,209
0516055,40,163
0516056,154,209
0516057,64,154,163
0516058,163
0516059,163
0516060,163
0516061,64,163
0516062,210
0516063,227
0516064,165
0516065,120
0516066,64,163
0516067,163,168
0516068,227,263,279
0516069,227
0516070,154,163
0516071,165
0516072,154,163
0516073,14
0516075,163
0516076,154
0516077,163
0516079,227
0516080,180
0516081,64,165
0516085,209
0516088,163
0516090,64,165
0516094,163
0516097,80,86,180
0516098,154
0516099,163,202,209,279
0516102,14
0516103,14
0516104,163,209
0516105,154
0516106,168,180
0516107,109,209
0516110,37,180
0516112,109,209
0516114,40
0516117,80
0516118,209,279
0516119,80,209
0516201,77,86,209
0516202,227
0516203,120,165
0516204,40,64,163
0516205,64,263
0516206,165,263
0516207,165,168
0516208,77,86
0516209,14
0516211,168
0516212,40,154,163
0516213,163,263
0516214,77
0516215,163
0516217,163,209
0516218,163,168
0516219,154,263
0516220,163
0516221,263,279
0516222,163,168
0516223,64,114,283
0516224,64,154,210
0516225,163,227
0516226,227,263
0516227,40,163
0516228,165,227
0516229,165
0516230,165,227
0516231,165,263
0516232,165
0516234,64,163
0516236,154
0516238,209
0516239,163
0516240,14,209
0516241,40,163,263
0516242,40,77
0516243,40,165
0516244,64
0516249,109,209
0516251,37,64,163
0516256,14,212
0516257,109,209
0516301,40,188,227
0516302,80,163
0516303,77,86
0516304,163,168
0516305,154,163
0516306,154,163
0516307,120,163
0516309,64
0516310,163,188,227,279
0516312,77
0516313,163,209
0516314,163
0516316,13,64,163
0516317,64
0516319,154,163
0516320,168,209
0516321,163
0516322,163
0516323,168,209
0516324,64,163
0516326,64,163,168
0516327,163
0516329,163
0516332,14
0516333,165
0516334,165
0611262,64
0612236,86,154,209
0612242,80,154,209
0612255,1,80,154,165
0616001,163
0616003,240
0616004,180
0616005,64,80
0616006,86
0616007,180
0616008,163
0616009,154,165
0616013,114,154,180,240
0616014,163,168
0616015,64,163
0616016,86
0616018,64,154
0616019,209
0616020,64,163
0616021,154
0616022,80,154
0616023,154,163
0616024,86,154,209
0616025,80
0616026,86,180
0616027,154,165
0616028,154
0616029,80,154
0616030,77,86
0616032,80,154
0616033,165
0616034,80,154
0616036,80
0616037,154
0616038,80,154
0616039,80,154
0616042,80,163,240
0616043,154
0616048,188
0616050,86
0616052,80,180
0616053,114,154
0616055,77,209
0616057,77,80
0616058,180
0616059,209
0616060,86
0616062,154
0616063,154
0616064,180
0616065,154
0616066,154
0616067,14
0616068,154
0616069,25,114
0616071,154
0616073,77
0616074,64,246
0616075,209
0616076,154
0616077,64,154
0616078,154
0616079,165,209
0616080,154
0616081,180
0616083,165,209
0616084,154
0616085,165,209
0616087,180
0616088,154
0616091,154,180
0616093,64,80
0616095,154
0616099,163
0616100,163
0616102,14
0616107,77,209
0616108,86,163
0616110,77,188
0616112,209
0616114,14,86
0616115,1,77
0616116,64
0616201,180
0616202,180
0616203,165,209
0616204,154
0616205,165
0616207,154,165
0616208,154
0616209,80,154
0616210,154,163
0616211,154
0616212,154
0616213,86,209
0616214,64
0616215,64,163
0616216,154,165,209
0616217,180
0616218,209
0616219,165,209
0616220,163,168
0616221,64
0616222,154
0616223,154,209
0616224,64,80,154
0616225,77,80,86
0616226,154,165
0616227,154
0616228,86,165
0616229,86,154,209
0616230,180,209
0616233,154
0616234,165,188
0616235,165
0616236,154,165
0616237,180
0616238,154,180,209
0616242,180
0616243,77,86
0616247,209
0616249,165,209
0616250,165
0616303,77,209
0616304,64
0616305,163
0616306,80,154
0616308,165
0616309,80,86
0616311,209
0616312,80,86,163
0616316,154
0616319,25
0616321,165
0616325,165
0616327,163
0616328,154,165
0616329,86,180
0616330,64
0616333,163
0616334,180
0616335,180
