[
    "177",
    "214",
    "102",
    "15",
    "35",
    "5",
    "159",
    "124",
    "144",
    "6",
    "51",
    "65",
    "53",
    "135",
    "134",
    "4",
    "218",
    "92",
    "39",
    "98",
    "58",
    "147",
    "57",
    "141",
    "69",
    "194",
    "138",
    "140",
    "91",
    "173",
    "12",
    "106",
    "219",
    "189",
    "38",
    "16",
    "222",
    "0",
    "160",
    "216",
    "110",
    "187",
    "10",
    "109",
    "167",
    "90",
    "145",
    "1",
    "2",
    "7",
    "50",
    "60",
    "208",
    "191"
]